EEMB DEI Report - 2022/23
…
These are the questions to be analyzed after omiting long responses (eg what “Other” means, “define diversity”) and demographic information.

## questions in a useable format
questions <- read_csv("eemb_dei_colrename.csv")  %>% 
  unite("newcolnames", c(colnames, category), sep = ":", na.rm=T, remove=F)

## these are the questions to be analyzed
questions %>% 
  filter(!str_detect(newcolnames, "longanswer"), 
         !str_detect(newcolnames, "demograph"), 
         !str_detect(newcolnames, "other"),
         !str_detect(newcolnames, "confirm")) %>% 
  select(question)

# A tibble: 97 × 1
   question                                                                     
   <chr>                                                                        
 1 How comfortable do you feel discussing about general DEI issues with: - Frie…
 2 How comfortable do you feel discussing about general DEI issues with: - Fami…
 3 How comfortable do you feel discussing about general DEI issues with: - peer…
 4 How comfortable do you feel discussing about general DEI issues with: - juni…
 5 How comfortable do you feel discussing about general DEI issues with: - seni…
 6 How comfortable do you feel discussing about general DEI issues with: - advi…
 7 How comfortable do you feel discussing about general DEI issues with: - non-…
 8 How comfortable do you feel discussing about general DEI issues with: - EEMB…
 9 How comfortable do you feel discussing about general DEI issues with: - Anon…
10 Do you personally feel well supported - academically by the department       
# ℹ 87 more rows
…
